<?xml version="1.0" encoding="utf-8"?>
<!-- Generator: Adobe Illustrator 16.0.0, SVG Export Plug-In . SVG Version: 6.00 Build 0)  -->
<!DOCTYPE svg PUBLIC "-//W3C//DTD SVG 1.1//EN" "http://www.w3.org/Graphics/SVG/1.1/DTD/svg11.dtd">
<svg version="1.1" id="Layer_1" xmlns="http://www.w3.org/2000/svg" xmlns:xlink="http://www.w3.org/1999/xlink" x="0px" y="0px"
	 width="187px" height="187px" viewBox="0 0 187 187" enable-background="new 0 0 187 187" xml:space="preserve">
<g>
	<path fill="#174272" d="M186,93.44c0,51.141-41.412,92.56-92.488,92.56C42.428,186,1,144.581,1,93.44C1,42.391,42.428,1,93.512,1
		C144.588,1,186,42.391,186,93.44z"/>
	<path fill="#FFFFFF" d="M140.634,76.79c1.786-1.865,2.841-4.036,2.841-6.424c0-7.318-9.649-12.873-22.463-12.873
		c-12.775,0-22.425,5.555-22.425,12.873c0,2.388,1.033,4.559,2.829,6.424c-1.796,1.893-2.829,4.062-2.829,6.423
		c0,2.389,1.033,4.582,2.829,6.454c-1.796,1.854-2.829,4.059-2.829,6.403c0,2.397,1.033,4.565,2.829,6.441
		c-1.796,1.863-2.829,4.07-2.829,6.435c0,0.111,0.019,0.238,0.019,0.357c-0.855-0.106-1.761-0.171-2.665-0.171
		c-1.303,0-2.577,0.116-3.844,0.349c0-0.178,0.057-0.349,0.057-0.535c0-2.364-1.028-4.571-2.813-6.435
		c1.786-1.876,2.813-4.046,2.813-6.441c0-2.345-1.028-4.55-2.813-6.403c1.786-1.872,2.813-4.065,2.813-6.454
		c0-2.374-1.028-4.54-2.813-6.423c1.786-1.865,2.813-4.036,2.813-6.424c0-2.374-1.028-4.555-2.813-6.427
		c1.786-1.865,2.813-4.059,2.813-6.446c0-2.361-1.028-4.563-2.813-6.426c1.786-1.877,2.813-4.061,2.813-6.431
		c0-2.381-1.028-4.563-2.813-6.418c-9.813-6.705-29.959-7.218-39.217,0c-1.812,1.883-2.829,4.037-2.829,6.418
		c0,2.37,1.005,4.554,2.829,6.431c-1.812,1.875-2.829,4.064-2.829,6.426c0,2.388,1.005,4.581,2.829,6.446
		c-1.812,1.882-2.829,4.053-2.829,6.427c0,2.388,1.005,4.559,2.829,6.424c-1.812,1.893-2.829,4.062-2.829,6.423
		c0,2.389,1.005,4.582,2.829,6.454c-1.812,1.854-2.829,4.059-2.829,6.403c0,2.397,1.005,4.565,2.829,6.441
		c-1.812,1.863-2.829,4.07-2.829,6.435c0,2.352,1.005,4.547,2.829,6.398c-1.812,1.888-2.829,4.074-2.829,6.439
		c0,2.362,1.005,4.559,2.829,6.445c-1.812,1.861-2.829,4.029-2.829,6.415c0,7.351,9.632,12.87,22.41,12.87
		c3.425,0,6.615-0.434,9.465-1.159c4.118,4.692,10.102,7.625,16.771,7.625c6.572,0,12.458-2.839,16.575-7.369
		c2.607,0.573,5.436,0.903,8.489,0.903c12.792,0,22.441-5.52,22.441-12.87c0-2.386-1.035-4.554-2.839-6.415
		c1.804-1.887,2.839-4.083,2.839-6.445c0-2.382-1.035-4.564-2.839-6.439c1.804-1.852,2.839-4.047,2.839-6.398
		c0-2.364-1.035-4.571-2.839-6.435c1.804-1.876,2.839-4.046,2.839-6.441c0-2.345-1.035-4.55-2.839-6.403
		c1.804-1.872,2.839-4.065,2.839-6.454C143.476,80.839,142.448,78.673,140.634,76.79z M121.025,64.084
		c9.557,0,15.876,3.785,15.876,6.282c0,2.502-6.319,6.287-15.876,6.287c-9.524,0-15.864-3.761-15.864-6.287
		C105.161,67.842,111.501,64.084,121.025,64.084z M121.025,83.213c5.363,0,10.167-0.985,13.942-2.628
		c1.222,0.897,1.934,1.833,1.934,2.628c0,2.516-6.319,6.315-15.876,6.315c-9.524,0-15.864-3.8-15.864-6.315
		c0-0.795,0.716-1.73,1.935-2.628C110.883,82.228,115.688,83.213,121.025,83.213z M69.72,38.988c5.35,0,16.106,1.757,15.877,5.642
		c-0.14,2.508-6.344,6.3-15.877,6.3c-9.566,0-15.864-3.773-15.864-6.3c0-0.781,0.727-1.738,1.937-2.631
		C60.635,39.447,64.352,38.988,69.72,38.988z M69.72,57.493c5.35,0,10.167-0.963,13.951-2.65c1.203,0.91,1.927,1.854,1.927,2.65
		c0,2.501-6.344,6.287-15.877,6.287c-9.566,0-15.864-3.791-15.864-6.287c0-0.784,0.727-1.74,1.937-2.65
		C59.577,56.53,64.352,57.493,69.72,57.493z M69.72,70.366c5.35,0,10.167-0.993,13.951-2.662c1.203,0.905,1.927,1.836,1.927,2.662
		c0,2.502-6.344,6.287-15.877,6.287c-9.566,0-15.864-3.761-15.864-6.287c0-0.826,0.727-1.757,1.937-2.662
		C59.577,69.373,64.352,70.366,69.72,70.366z M69.72,83.213c5.35,0,10.167-0.985,13.951-2.628c1.203,0.897,1.927,1.833,1.927,2.628
		c0,2.516-6.344,6.315-15.877,6.315c-9.566,0-15.864-3.8-15.864-6.315c0-0.795,0.727-1.73,1.937-2.628
		C59.577,82.228,64.352,83.213,69.72,83.213z M69.72,96.07c5.35,0,10.167-0.944,13.951-2.644c1.203,0.933,1.927,1.839,1.927,2.644
		c0,2.511-6.344,6.33-15.877,6.33c-9.566,0-15.864-3.819-15.864-6.33c0-0.805,0.727-1.734,1.937-2.644
		C59.577,95.126,64.352,96.07,69.72,96.07z M69.72,108.946c5.35,0,10.167-0.998,13.951-2.674c1.203,0.936,1.927,1.854,1.927,2.674
		c0,2.512-6.344,6.3-15.877,6.3c-9.566,0-15.864-3.815-15.864-6.3c0-0.807,0.727-1.738,1.937-2.674
		C59.577,107.948,64.352,108.946,69.72,108.946z M69.72,121.8c2.233,0,4.322-0.179,6.301-0.473c-1.021,2.03-1.761,4.201-2.144,6.495
		c-1.306,0.166-2.664,0.274-4.146,0.274c-9.552,0-15.864-3.784-15.864-6.297c0-0.8,0.739-1.747,1.937-2.653
		C59.577,120.817,64.352,121.8,69.72,121.8z M69.72,140.936c-9.566,0-15.864-3.765-15.864-6.278c0-0.786,0.727-1.731,1.937-2.639
		c3.784,1.672,8.559,2.639,13.927,2.639c1.397,0,2.729-0.073,4.019-0.194c0.262,2.112,0.835,4.102,1.644,6
		C73.655,140.741,71.772,140.936,69.72,140.936z M95.954,147.429c-8.731,0-15.86-7.105-15.86-15.872
		c0-8.733,7.128-15.853,15.86-15.853c8.77,0,15.879,7.119,15.879,15.853C111.833,140.323,104.724,147.429,95.954,147.429z
		 M136.901,134.645c0,2.526-6.319,6.291-15.876,6.291c-1.632,0-3.115-0.131-4.572-0.334c0.855-1.874,1.429-3.931,1.744-6.046
		c0.921,0.045,1.854,0.089,2.828,0.089c5.363,0,10.18-0.966,13.942-2.638C136.183,132.926,136.901,133.855,136.901,134.645z
		 M136.901,121.8c0,2.513-6.319,6.297-15.876,6.297c-1.03,0-1.99-0.059-2.924-0.152c-0.41-2.289-1.123-4.461-2.137-6.45
		c1.631,0.204,3.324,0.315,5.061,0.315c5.363,0,10.167-0.992,13.942-2.663C136.183,120.053,136.901,120.983,136.901,121.8z
		 M136.901,108.946c0,2.512-6.319,6.3-15.876,6.3c-9.524,0-15.836-3.815-15.836-6.3c0-0.807,0.688-1.738,1.907-2.674
		c3.788,1.676,8.593,2.674,13.93,2.674c5.363,0,10.18-0.998,13.942-2.674C136.183,107.208,136.901,108.14,136.901,108.946z
		 M136.901,96.07c0,2.511-6.319,6.33-15.876,6.33c-9.524,0-15.836-3.819-15.836-6.33c0-0.805,0.688-1.734,1.907-2.644
		c3.788,1.699,8.593,2.644,13.93,2.644c5.363,0,10.18-0.944,13.942-2.644C136.183,94.336,136.901,95.266,136.901,96.07z"/>
</g>
</svg>
